…
      #------------
      
      EqvlntImp.df$has.eqvlnc[j] <- T

      break
    }
  }
}
```

## Minimun Equivalence Interval


```
## # A tibble: 66 x 7
## # Groups:   imputed.var [6]
##    algorithm imputed.var algorithm.parsed min.Eq.val p.ttest p.tost has.eqvlnc
##    <chr>     <chr>       <fct>                 <dbl>   <dbl>  <dbl> <lgl>     
##  1 dt514b    Li          DT^*                  0.275  0.0741 0.0468 TRUE      
##  2 knn       Li          KNN^-                 0.275  0.0807 0.0400 TRUE      
##  3 mice      Li          MICE^-                0.150  0.839  0.0327 TRUE      
##  4 svrr514b  Li          SVR_r^*               0.225  0.270  0.0292 TRUE      
##  5 svrr522   Li          miSVR_r^*             0.150  0.644  0.0494 TRUE      
##  6 dt514a    Mg          DT^-                  0.125  0.597  0.0436 TRUE      
##  7 dt514b    Mg          DT^*                  0.125  0.561  0.0477 TRUE      
##  8 dt522     Mg          miDT^*                0.150  0.517  0.0208 TRUE      
##  9 knn       Mg          KNN^-                 0.150  0.529  0.0199 TRUE      
## 10 mean      Mg          mu                    0.150  0.503  0.0219 TRUE      
## # ... with 56 more rows
```
…
